%YAML 1.1
%TAG !u! tag:unity3d.com,2011:
--- !u!1045 &1
EditorBuildSettings:
  m_ObjectHideFlags: 0
  serializedVersion: 2
  m_Scenes:
  - enabled: 1
    path: Assets/Scenes/0_Loader.unity
    guid: f3dd1bf3330fd7b4f9ece78394afa795
  - enabled: 1
    path: Assets/Scenes/00_ScreenSaver.unity
    guid: 3a25860d8eb56e24c89f06cf8a477f72
  - enabled: 1
    path: Assets/Scenes/1_Main.unity
    guid: 9fc0d4010bbf28b4594072e72b8655ab
  - enabled: 1
    path: Assets/Scenes/2_Spec.unity
    guid: aac30c8e9d3658c468f08409540eeb8d
  - enabled: 0
    path: Assets/Scenes/3_VDO.unity
    guid: 90f8cd48513a951498a47ea0e821f7a3
  - enabled: 1
    path: Assets/Scenes/3_VDO_9s.unity
    guid: 7f178e1530aa5e14dbba11702d7164e4
  - enabled: 1
    path: Assets/Scenes/4_Brochure.unity
    guid: e752b9004fb04ce4096ca4bbe94a9efa
  - enabled: 1
    path: Assets/Scenes/5_Promotion.unity
    guid: 4165e91341380bf40ab9b199b2e51028
  - enabled: 1
    path: Assets/Scenes/6_Service.unity
    guid: 515172b2caa9ae04e978be4a3865e7a2
  - enabled: 1
    path: Assets/Scenes/7_QR.unity
    guid: 919ddd7617b1da34ca0ea733cf48e1d5
  m_configObjects: {}
